simWorkspace/booth4/test.vcd
$version Generated by VerilatedVcd $end
$date 2022年07月22日 星期五 16时34分36秒 $end
$timescale 1ps $end

 $scope module TOP $end
  $var wire  1 ; clk $end
  $var wire  1 9 io_cal_finish $end
  $var wire  6 6 io_dinA [5:0] $end
  $var wire  4 7 io_dinB [3:0] $end
  $var wire  1 5 io_din_vld $end
  $var wire 10 : io_dout [9:0] $end
  $var wire  1 8 io_dout_vld $end
  $var wire  1 < reset $end
  $scope module booth4 $end
   $var wire  6 + Add2B [5:0] $end
   $var wire  6 * AddB [5:0] $end
   $var wire  4 # Breg [3:0] $end
   $var wire  6 - Minus2B [5:0] $end
   $var wire  6 , MinusB [5:0] $end
   $var wire  6 ' Negative2B [5:0] $end
   $var wire  6 & NegativeB [5:0] $end
   $var wire  6 ) Positive2B [5:0] $end
   $var wire  6 ( PositiveB [5:0] $end
   $var wire 13 1 aftershift [12:0] $end
   $var wire  6 0 beforeshift [5:0] $end
   $var wire  2 2 cal_cnt [1:0] $end
   $var wire  1 4 cal_cnt_ov_flag $end
   $var wire  1 3 cal_en $end
   $var wire  1 = cal_en_regNext $end
   $var wire  1 ; clk $end
   $var wire  3 % flag_bits [2:0] $end
   $var wire  1 9 io_cal_finish $end
   $var wire  6 6 io_dinA [5:0] $end
   $var wire  4 7 io_dinB [3:0] $end
   $var wire  1 5 io_din_vld $end
   $var wire 10 : io_dout [9:0] $end
   $var wire  1 8 io_dout_vld $end
   $var wire  1 < reset $end
   $var wire 13 $ shiftReg [12:0] $end
   $var wire  6 / shiftReg_high [5:0] $end
   $var wire  7 . shiftReg_low [6:0] $end
  $upscope $end
 $upscope $end
$enddefinitions $end


#0
b0000 #
b0000000000000 $
b000 %
b000000 &
b000000 '
b000000 (
b000000 )
b000000 *
b000000 +
b000000 ,
b000000 -
b0000000 .
b000000 /
b000000 0
b0000000000000 1
b00 2
03
04
05
b100110 6
b0101 7
18
09
b0000000000 :
0;
1<
1=
#32
0<
#34
08
1;
0=
#35
0;
#36
1;
#37
0;
#38
1;
#39
0;
#40
1;
#41
0;
#42
1;
#43
0;
#44
1;
#45
0;
#46
1;
#47
0;
#48
1;
#49
0;
#50
1;
#51
0;
#52
1;
#53
0;
#54
1;
#55
0;
#56
1;
#57
0;
#58
1;
#59
0;
#60
1;
#61
0;
#62
1;
#63
0;
#64
1;
#65
0;
#66
1;
#67
0;
#68
1;
#69
0;
#70
1;
#71
0;
#72
1;
#73
0;
#74
1;
#75
0;
#76
1;
#77
0;
#78
1;
#79
0;
#80
1;
#81
0;
#82
1;
#83
0;
#84
1;
#85
0;
#86
1;
#87
0;
#88
1;
#89
0;
#90
1;
#91
0;
#92
1;
#93
0;
#94
1;
#95
0;
#96
1;
#97
0;
#98
1;
#99
0;
#100
15
b100000 6
b1000 7
1;
#101
0;
#102
b1000 #
b0000001000000 $
b001000 &
b010000 '
b111000 (
b110000 )
b111000 *
b110000 +
b001000 ,
b010000 -
b1000000 .
b0000000010000 1
13
05
b0000100000 :
1;
#103
0;
#104
b0000000010000 $
b0010000 .
b0000000000100 1
b01 2
b0000001000 :
1;
1=
#105
0;
#106
b0000000000100 $
b100 %
b0000100 .
b010000 0
b0001000000001 1
b10 2
14
19
b0000000010 :
1;
#107
0;
#108
b0001000000001 $
b001 %
b111100 *
b110100 +
b001100 ,
b010100 -
b0000001 .
b000100 /
b111100 0
b1111110000000 1
b11 2
03
04
15
b1001 7
18
09
b0100000000 :
1;
#109
0;
#110
b1001 #
b0000001000000 $
b000 %
b000111 &
b001110 '
b111001 (
b110010 )
b111001 *
b110010 +
b000111 ,
b001110 -
b1000000 .
b000000 /
b000000 0
b0000000010000 1
b00 2
13
05
08
b0000100000 :
1;
0=
#111
0;
#112
b0000000010000 $
b0010000 .
b0000000000100 1
b01 2
b0000001000 :
1;
1=
#113
0;
#114
b0000000000100 $
b100 %
b0000100 .
b001110 0
b0000111000001 1
b10 2
14
19
b0000000010 :
1;
#115
0;
#116
b0000111000001 $
b001 %
b111100 *
b110101 +
b001010 ,
b010001 -
b1000001 .
b000011 /
b111100 0
b1111110010000 1
b11 2
03
04
15
b1010 7
18
09
b0011100000 :
1;
#117
0;
#118
b1010 #
b0000001000000 $
b000 %
b000110 &
b001100 '
b111010 (
b110100 )
b111010 *
b110100 +
b000110 ,
b001100 -
b1000000 .
b000000 /
b000000 0
b0000000010000 1
b00 2
13
05
08
b0000100000 :
1;
0=
#119
0;
#120
b0000000010000 $
b0010000 .
b0000000000100 1
b01 2
b0000001000 :
1;
1=
#121
0;
#122
b0000000000100 $
b100 %
b0000100 .
b001100 0
b0000110000001 1
b10 2
14
19
b0000000010 :
1;
#123
0;
#124
b0000110000001 $
b001 %
b111101 *
b110111 +
b001001 ,
b001111 -
b0000001 .
b000011 /
b111101 0
b1111110100000 1
b11 2
03
04
15
b1011 7
18
09
b0011000000 :
1;
#125
0;
#126
b1011 #
b0000001000000 $
b000 %
b000101 &
b001010 '
b111011 (
b110110 )
b111011 *
b110110 +
b000101 ,
b001010 -
b1000000 .
b000000 /
b000000 0
b0000000010000 1
b00 2
13
05
08
b0000100000 :
1;
0=
#127
0;
#128
b0000000010000 $
b0010000 .
b0000000000100 1
b01 2
b0000001000 :
1;
1=
#129
0;
#130
b0000000000100 $
b100 %
b0000100 .
b001010 0
b0000101000001 1
b10 2
14
19
b0000000010 :
1;
#131
0;
#132
b0000101000001 $
b001 %
b111101 *
b111000 +
b000111 ,
b001100 -
b1000001 .
b000010 /
b111101 0
b1111110110000 1
b11 2
03
04
15
b1100 7
18
09
b0010100000 :
1;
#133
0;
#134
b1100 #
b0000001000000 $
b000 %
b000100 &
b001000 '
b111100 (
b111000 )
b111100 *
b000100 ,
b001000 -
b1000000 .
b000000 /
b000000 0
b0000000010000 1
b00 2
13
05
08
b0000100000 :
1;
0=
#135
0;
#136
b0000000010000 $
b0010000 .
b0000000000100 1
b01 2
b0000001000 :
1;
1=
#137
0;
#138
b0000000000100 $
b100 %
b0000100 .
b001000 0
b0000100000001 1
b10 2
14
19
b0000000010 :
1;
#139
0;
#140
b0000100000001 $
b001 %
b111110 *
b111010 +
b000110 ,
b001010 -
b0000001 .
b000010 /
b111110 0
b1111111000000 1
b11 2
03
04
15
b1101 7
18
09
b0010000000 :
1;
#141
0;
#142
b1101 #
b0000001000000 $
b000 %
b000011 &
b000110 '
b111101 (
b111010 )
b111101 *
b000011 ,
b000110 -
b1000000 .
b000000 /
b000000 0
b0000000010000 1
b00 2
13
05
08
b0000100000 :
1;
0=
#143
0;
#144
b0000000010000 $
b0010000 .
b0000000000100 1
b01 2
b0000001000 :
1;
1=
#145
0;
#146
b0000000000100 $
b100 %
b0000100 .
b000110 0
b0000011000001 1
b10 2
14
19
b0000000010 :
1;
#147
0;
#148
b0000011000001 $
b001 %
b111110 *
b111011 +
b000100 ,
b000111 -
b1000001 .
b000001 /
b111110 0
b1111111010000 1
b11 2
03
04
15
b1110 7
18
09
b0001100000 :
1;
#149
0;
#150
b1110 #
b0000001000000 $
b000 %
b000010 &
b000100 '
b111110 (
b111100 )
b111100 +
b000010 ,
b000100 -
b1000000 .
b000000 /
b000000 0
b0000000010000 1
b00 2
13
05
08
b0000100000 :
1;
0=
#151
0;
#152
b0000000010000 $
b0010000 .
b0000000000100 1
b01 2
b0000001000 :
1;
1=
#153
0;
#154
b0000000000100 $
b100 %
b0000100 .
b000100 0
b0000010000001 1
b10 2
14
19
b0000000010 :
1;
#155
0;
#156
b0000010000001 $
b001 %
b111111 *
b111101 +
b000011 ,
b000101 -
b0000001 .
b000001 /
b111111 0
b1111111100000 1
b11 2
03
04
15
b1111 7
18
09
b0001000000 :
1;
#157
0;
#158
b1111 #
b0000001000000 $
b000 %
b000001 &
b000010 '
b111111 (
b111110 )
b111110 +
b000001 ,
b000010 -
b1000000 .
b000000 /
b000000 0
b0000000010000 1
b00 2
13
05
08
b0000100000 :
1;
0=
#159
0;
#160
b0000000010000 $
b0010000 .
b0000000000100 1
b01 2
b0000001000 :
1;
1=
#161
0;
#162
b0000000000100 $
b100 %
b0000100 .
b000010 0
b0000001000001 1
b10 2
14
19
b0000000010 :
1;
#163
0;
#164
b0000001000001 $
b001 %
b1000001 .
b111111 0
b1111111110000 1
b11 2
03
04
15
b0000 7
18
09
b0000100000 :
1;
#165
0;
#166
b0000 #
b0000001000000 $
b000 %
b000000 &
b000000 '
b000000 (
b000000 )
b000000 *
b000000 +
b000000 ,
b000000 -
b1000000 .
b000000 0
b0000000010000 1
b00 2
13
05
08
1;
0=
#167
0;
#168
b0000000010000 $
b0010000 .
b0000000000100 1
b01 2
b0000001000 :
1;
1=
#169
0;
#170
b0000000000100 $
b100 %
b0000100 .
b0000000000001 1
b10 2
14
19
b0000000010 :
1;
#171
0;
#172
b0000000000001 $
b001 %
b0000001 .
b0000000000000 1
b11 2
03
04
15
b0001 7
18
09
b0000000000 :
1;
#173
0;
#174
b0001 #
b0000001000000 $
b000 %
b111111 &
b111110 '
b000001 (
b000010 )
b000001 *
b000010 +
b111111 ,
b111110 -
b1000000 .
b0000000010000 1
b00 2
13
05
08
b0000100000 :
1;
0=
#175
0;
#176
b0000000010000 $
b0010000 .
b0000000000100 1
b01 2
b0000001000 :
1;
1=
#177
0;
#178
b0000000000100 $
b100 %
b0000100 .
b111110 0
b1111111000001 1
b10 2
14
19
b0000000010 :
1;
#179
0;
#180
b1111111000001 $
b001 %
b000000 *
b000001 +
b111110 ,
b111101 -
b1000001 .
b111111 /
b000000 0
b0000000010000 1
b11 2
03
04
15
b0010 7
18
09
b1111100000 :
1;
#181
0;
#182
b0010 #
b0000001000000 $
b000 %
b111110 &
b111100 '
b000010 (
b000100 )
b000010 *
b000100 +
b111100 -
b1000000 .
b000000 /
b00 2
13
05
08
b0000100000 :
1;
0=
#183
0;
#184
b0000000010000 $
b0010000 .
b0000000000100 1
b01 2
b0000001000 :
1;
1=
#185
0;
#186
b0000000000100 $
b100 %
b0000100 .
b111100 0
b1111110000001 1
b10 2
14
19
b0000000010 :
1;
#187
0;
#188
b1111110000001 $
b001 %
b000001 *
b000011 +
b111101 ,
b111011 -
b0000001 .
b111111 /
b000001 0
b0000000100000 1
b11 2
03
04
15
b0011 7
18
09
b1111000000 :
1;
#189
0;
#190
b0011 #
b0000001000000 $
b000 %
b111101 &
b111010 '
b000011 (
b000110 )
b000011 *
b000110 +
b111010 -
b1000000 .
b000000 /
b000000 0
b0000000010000 1
b00 2
13
05
08
b0000100000 :
1;
0=
#191
0;
#192
b0000000010000 $
b0010000 .
b0000000000100 1
b01 2
b0000001000 :
1;
1=
#193
0;
#194
b0000000000100 $
b100 %
b0000100 .
b111010 0
b1111101000001 1
b10 2
14
19
b0000000010 :
1;
#195
0;
#196
b1111101000001 $
b001 %
b000001 *
b000100 +
b111011 ,
b111000 -
b1000001 .
b111110 /
b000001 0
b0000000110000 1
b11 2
03
04
15
b0100 7
18
09
b1110100000 :
1;
#197
0;
#198
b0100 #
b0000001000000 $
b000 %
b111100 &
b111000 '
b000100 (
b001000 )
b000100 *
b001000 +
b111100 ,
b1000000 .
b000000 /
b000000 0
b0000000010000 1
b00 2
13
05
08
b0000100000 :
1;
0=
#199
0;
#200
b0000000010000 $
b0010000 .
b0000000000100 1
b01 2
b0000001000 :
1;
1=
#201
0;
#202
b0000000000100 $
b100 %
b0000100 .
b111000 0
b1111100000001 1
b10 2
14
19
b0000000010 :
1;
#203
0;
#204
b1111100000001 $
b001 %
b000010 *
b000110 +
b111010 ,
b110110 -
b0000001 .
b111110 /
b000010 0
b0000001000000 1
b11 2
03
04
15
b0101 7
18
09
b1110000000 :
1;
#205
0;
#206
b0101 #
b0000001000000 $
b000 %
b111011 &
b110110 '
b000101 (
b001010 )
b000101 *
b001010 +
b111011 ,
b1000000 .
b000000 /
b000000 0
b0000000010000 1
b00 2
13
05
08
b0000100000 :
1;
0=
#207
0;
#208
b0000000010000 $
b0010000 .
b0000000000100 1
b01 2
b0000001000 :
1;
1=
#209
0;
#210
b0000000000100 $
b100 %
b0000100 .
b110110 0
b1111011000001 1
b10 2
14
19
b0000000010 :
1;
#211
0;
#212
b1111011000001 $
b001 %
b000010 *
b000111 +
b111000 ,
b110011 -
b1000001 .
b111101 /
b000010 0
b0000001010000 1
b11 2
03
04
15
b0110 7
18
09
b1101100000 :
1;
#213
0;
#214
b0110 #
b0000001000000 $
b000 %
b111010 &
b110100 '
b000110 (
b001100 )
b000110 *
b001100 +
b111010 ,
b110100 -
b1000000 .
b000000 /
b000000 0
b0000000010000 1
b00 2
13
05
08
b0000100000 :
1;
0=
#215
0;
#216
b0000000010000 $
b0010000 .
b0000000000100 1
b01 2
b0000001000 :
1;
1=
#217
0;
#218
b0000000000100 $
b100 %
b0000100 .
b110100 0
b1111010000001 1
b10 2
14
19
b0000000010 :
1;
#219
0;
#220
b1111010000001 $
b001 %
b000011 *
b001001 +
b110111 ,
b110001 -
b0000001 .
b111101 /
b000011 0
b0000001100000 1
b11 2
03
04
15
b0111 7
18
09
b1101000000 :
1;
#221
0;
#222
b0111 #
b0000001000000 $
b000 %
b111001 &
b110010 '
b000111 (
b001110 )
b000111 *
b001110 +
b111001 ,
b110010 -
b1000000 .
b000000 /
b000000 0
b0000000010000 1
b00 2
13
05
08
b0000100000 :
1;
0=
#223
0;
#224
b0000000010000 $
b0010000 .
b0000000000100 1
b01 2
b0000001000 :
1;
1=
#225
0;
#226
b0000000000100 $
b100 %
b0000100 .
b110010 0
b1111001000001 1
b10 2
14
19
b0000000010 :
1;
#227
0;
#228
b1111001000001 $
b001 %
b000011 *
b001010 +
b110101 ,
b101110 -
b1000001 .
b111100 /
b000011 0
b0000001110000 1
b11 2
03
04
15
b100001 6
b1000 7
18
09
b1100100000 :
1;
#229
0;
#230
b1000 #
b0000001000010 $
b010 %
b001000 &
b010000 '
b111000 (
b110000 )
b111000 *
b110000 +
b001000 ,
b010000 -
b1000010 .
b000000 /
b111000 0
b1111100010000 1
b00 2
13
05
08
b0000100001 :
1;
0=
#231
0;
#232
b1111100010000 $
b000 %
b110110 *
b101110 +
b000110 ,
b001110 -
b0010000 .
b111110 /
b111110 0
b1111111000100 1
b01 2
b1110001000 :
1;
1=
#233
0;
#234
b1111111000100 $
b100 %
b110111 *
b101111 +
b000111 ,
b001111 -
b1000100 .
b111111 /
b001111 0
b0000111110001 1
b10 2
14
19
b1111100010 :
1;
#235
0;
#236
b0000111110001 $
b001 %
b111011 *
b110011 +
b001011 ,
b010011 -
b1110001 .
b000011 /
b111011 0
b1111101111100 1
b11 2
03
04
15
b1001 7
18
09
b0011111000 :
1;
#237
0;
#238
b1001 #
b0000001000010 $
b010 %
b000111 &
b001110 '
b111001 (
b110010 )
b111001 *
b110010 +
b000111 ,
b001110 -
b1000010 .
b000000 /
b111001 0
b1111100110000 1
b00 2
13
05
08
b0000100001 :
1;
0=
#239
0;
#240
b1111100110000 $
b000 %
b110111 *
b110000 +
b000101 ,
b001100 -
b0110000 .
b111110 /
b111110 0
b1111111001100 1
b01 2
b1110011000 :
1;
1=
#241
0;
#242
b1111111001100 $
b100 %
b111000 *
b110001 +
b000110 ,
b001101 -
b1001100 .
b111111 /
b001101 0
b0000110110011 1
b10 2
14
19
b1111100110 :
1;
#243
0;
#244
b0000110110011 $
b011 %
b111100 *
b110101 +
b001010 ,
b010001 -
b0110011 .
b000011 /
b110101 0
b1111010101100 1
b11 2
03
04
15
b1010 7
18
09
b0011011001 :
1;
#245
0;
#246
b1010 #
b0000001000010 $
b010 %
b000110 &
b001100 '
b111010 (
b110100 )
b111010 *
b110100 +
b000110 ,
b001100 -
b1000010 .
b000000 /
b111010 0
b1111101010000 1
b00 2
13
05
08
b0000100001 :
1;
0=
#247
0;
#248
b1111101010000 $
b000 %
b111000 *
b110010 +
b000100 ,
b001010 -
b1010000 .
b111110 /
b111110 0
b1111111010100 1
b01 2
b1110101000 :
1;
1=
#249
0;
#250
b1111111010100 $
b100 %
b111001 *
b110011 +
b000101 ,
b001011 -
b1010100 .
b111111 /
b001011 0
b0000101110101 1
b10 2
14
19
b1111101010 :
1;
#251
0;
#252
b0000101110101 $
b101 %
b111100 *
b110110 +
b001000 ,
b001110 -
b1110101 .
b000010 /
b001000 0
b0000100011101 1
b11 2
03
04
15
b1011 7
18
09
b0010111010 :
1;
#253
0;
#254
b1011 #
b0000001000010 $
b010 %
b000101 &
b001010 '
b111011 (
b110110 )
b111011 *
b000101 ,
b001010 -
b1000010 .
b000000 /
b111011 0
b1111101110000 1
b00 2
13
05
08
b0000100001 :
1;
0=
#255
0;
#256
b1111101110000 $
b000 %
b111001 *
b110100 +
b000011 ,
b001000 -
b1110000 .
b111110 /
b111110 0
b1111111011100 1
b01 2
b1110111000 :
1;
1=
#257
0;
#258
b1111111011100 $
b100 %
b111010 *
b110101 +
b000100 ,
b001001 -
b1011100 .
b111111 /
b001001 0
b0000100110111 1
b10 2
14
19
b1111101110 :
1;
#259
0;
#260
b0000100110111 $
b111 %
b111101 *
b111000 +
b000111 ,
b001100 -
b0110111 .
b000010 /
b000010 0
b0000001001101 1
b11 2
03
04
15
b1100 7
18
09
b0010011011 :
1;
#261
0;
#262
b1100 #
b0000001000010 $
b010 %
b000100 &
b001000 '
b111100 (
b111000 )
b111100 *
b000100 ,
b001000 -
b1000010 .
b000000 /
b111100 0
b1111110010000 1
b00 2
13
05
08
b0000100001 :
1;
0=
#263
0;
#264
b1111110010000 $
b000 %
b111011 *
b110111 +
b000011 ,
b000111 -
b0010000 .
b111111 /
b111111 0
b1111111100100 1
b01 2
b1111001000 :
1;
1=
#265
0;
#266
b1111111100100 $
b100 %
b1100100 .
b000111 0
b0000011111001 1
b10 2
14
19
b1111110010 :
1;
#267
0;
#268
b0000011111001 $
b001 %
b111101 *
b111001 +
b000101 ,
b001001 -
b1111001 .
b000001 /
b111101 0
b1111110111110 1
b11 2
03
04
15
b1101 7
18
09
b0001111100 :
1;
#269
0;
#270
b1101 #
b0000001000010 $
b010 %
b000011 &
b000110 '
b111101 (
b111010 )
b111010 +
b000011 ,
b000110 -
b1000010 .
b000000 /
b1111110110000 1
b00 2
13
05
08
b0000100001 :
1;
0=
#271
0;
#272
b1111110110000 $
b000 %
b111100 *
b111001 +
b000010 ,
b000101 -
b0110000 .
b111111 /
b111111 0
b1111111101100 1
b01 2
b1111011000 :
1;
1=
#273
0;
#274
b1111111101100 $
b100 %
b1101100 .
b000101 0
b0000010111011 1
b10 2
14
19
b1111110110 :
1;
#275
0;
#276
b0000010111011 $
b011 %
b111110 *
b111011 +
b000100 ,
b000111 -
b0111011 .
b000001 /
b111011 0
b1111101101110 1
b11 2
03
04
15
b1110 7
18
09
b0001011101 :
1;
#277
0;
#278
b1110 #
b0000001000010 $
b010 %
b000010 &
b000100 '
b111110 (
b111100 )
b111100 +
b000010 ,
b000100 -
b1000010 .
b000000 /
b111110 0
b1111111010000 1
b00 2
13
05
08
b0000100001 :
1;
0=
#279
0;
#280
b1111111010000 $
b000 %
b111101 *
b111011 +
b000001 ,
b000011 -
b1010000 .
b111111 /
b111111 0
b1111111110100 1
b01 2
b1111101000 :
1;
1=
#281
0;
#282
b1111111110100 $
b100 %
b1110100 .
b000011 0
b0000001111101 1
b10 2
14
19
b1111111010 :
1;
#283
0;
#284
b0000001111101 $
b101 %
b111110 *
b111100 +
b000010 ,
b000100 -
b1111101 .
b000000 /
b000010 0
b0000001011111 1
b11 2
03
04
15
b1111 7
18
09
b0000111110 :
1;
#285
0;
#286
b1111 #
b0000001000010 $
b010 %
b000001 &
b000010 '
b111111 (
b111110 )
b111111 *
b111110 +
b000001 ,
b000010 -
b1000010 .
b111111 0
b1111111110000 1
b00 2
13
05
08
b0000100001 :
1;
0=
#287
0;
#288
b1111111110000 $
b000 %
b111110 *
b111101 +
b000000 ,
b000001 -
b1110000 .
b111111 /
b1111111111100 1
b01 2
b1111111000 :
1;
1=
#289
0;
#290
b1111111111100 $
b100 %
b1111100 .
b000001 0
b0000000111111 1
b10 2
14
19
b1111111110 :
1;
#291
0;
#292
b0000000111111 $
b111 %
b111111 *
b111110 +
b000001 ,
b000010 -
b0111111 .
b000000 /
b000000 0
b0000000001111 1
b11 2
03
04
15
b0000 7
18
09
b0000011111 :
1;
#293
0;
#294
b0000 #
b0000001000010 $
b010 %
b000000 &
b000000 '
b000000 (
b000000 )
b000000 *
b000000 +
b000000 ,
b000000 -
b1000010 .
b0000000010000 1
b00 2
13
05
08
b0000100001 :
1;
0=
#295
0;
#296
b0000000010000 $
b000 %
b0010000 .
b0000000000100 1
b01 2
b0000001000 :
1;
1=
#297
0;
#298
b0000000000100 $
b100 %
b0000100 .
b0000000000001 1
b10 2
14
19
b0000000010 :
1;
#299
0;
#300
b0000000000001 $
b001 %
b0000001 .
b0000000000000 1
b11 2
03
04
15
b0001 7
18
09
b0000000000 :
1;
#301
0;
#302
b0001 #
b0000001000010 $
b010 %
b111111 &
b111110 '
b000001 (
b000010 )
b000001 *
b000010 +
b111111 ,
b111110 -
b1000010 .
b000001 0
b0000000110000 1
b00 2
13
05
08
b0000100001 :
1;
0=
#303
0;
#304
b0000000110000 $
b000 %
b0110000 .
b000000 0
b0000000001100 1
b01 2
b0000011000 :
1;
1=
#305
0;
#306
b0000000001100 $
b100 %
b0001100 .
b111110 0
b1111111000011 1
b10 2
14
19
b0000000110 :
1;
#307
0;
#308
b1111111000011 $
b011 %
b000000 *
b000001 +
b111110 ,
b111101 -
b1000011 .
b111111 /
b000001 0
b0000000110000 1
b11 2
03
04
15
b0010 7
18
09
b1111100001 :
1;
#309
0;
#310
b0010 #
b0000001000010 $
b010 %
b111110 &
b111100 '
b000010 (
b000100 )
b000010 *
b000100 +
b111100 -
b1000010 .
b000000 /
b000010 0
b0000001010000 1
b00 2
13
05
08
b0000100001 :
1;
0=
#311
0;
#312
b0000001010000 $
b000 %
b1010000 .
b000000 0
b0000000010100 1
b01 2
b0000101000 :
1;
1=
#313
0;
#314
b0000000010100 $
b100 %
b0010100 .
b111100 0
b1111110000101 1
b10 2
14
19
b0000001010 :
1;
#315
0;
#316
b1111110000101 $
b101 %
b000001 *
b000011 +
b111101 ,
b111011 -
b0000101 .
b111111 /
b111101 0
b1111110100001 1
b11 2
03
04
15
b0011 7
18
09
b1111000010 :
1;
#317
0;
#318
b0011 #
b0000001000010 $
b010 %
b111101 &
b111010 '
b000011 (
b000110 )
b000011 *
b000110 +
b111010 -
b1000010 .
b000000 /
b000011 0
b0000001110000 1
b00 2
13
05
08
b0000100001 :
1;
0=
#319
0;
#320
b0000001110000 $
b000 %
b1110000 .
b000000 0
b0000000011100 1
b01 2
b0000111000 :
1;
1=
#321
0;
#322
b0000000011100 $
b100 %
b0011100 .
b111010 0
b1111101000111 1
b10 2
14
19
b0000001110 :
1;
#323
0;
#324
b1111101000111 $
b111 %
b000001 *
b000100 +
b111011 ,
b111000 -
b1000111 .
b111110 /
b111110 0
b1111111010001 1
b11 2
03
04
15
b0100 7
18
09
b1110100011 :
1;
#325
0;
#326
b0100 #
b0000001000010 $
b010 %
b111100 &
b111000 '
b000100 (
b001000 )
b000100 *
b001000 +
b111100 ,
b1000010 .
b000000 /
b000100 0
b0000010010000 1
b00 2
13
05
08
b0000100001 :
1;
0=
#327
0;
#328
b0000010010000 $
b000 %
b000101 *
b001001 +
b111101 ,
b111001 -
b0010000 .
b000001 /
b000001 0
b0000000100100 1
b01 2
b0001001000 :
1;
1=
#329
0;
#330
b0000000100100 $
b100 %
b000100 *
b001000 +
b111100 ,
b111000 -
b0100100 .
b000000 /
b111000 0
b1111100001001 1
b10 2
14
19
b0000010010 :
1;
#331
0;
#332
b1111100001001 $
b001 %
b000010 *
b000110 +
b111010 ,
b110110 -
b0001001 .
b111110 /
b000010 0
b0000001000010 1
b11 2
03
04
15
b0101 7
18
09
b1110000100 :
1;
#333
0;
#334
b0101 #
b0000001000010 $
b010 %
b111011 &
b110110 '
b000101 (
b001010 )
b000101 *
b001010 +
b111011 ,
b1000010 .
b000000 /
b000101 0
b0000010110000 1
b00 2
13
05
08
b0000100001 :
1;
0=
#335
0;
#336
b0000010110000 $
b000 %
b000110 *
b001011 +
b111100 ,
b110111 -
b0110000 .
b000001 /
b000001 0
b0000000101100 1
b01 2
b0001011000 :
1;
1=
#337
0;
#338
b0000000101100 $
b100 %
b000101 *
b001010 +
b111011 ,
b110110 -
b0101100 .
b000000 /
b110110 0
b1111011001011 1
b10 2
14
19
b0000010110 :
1;
#339
0;
#340
b1111011001011 $
b011 %
b000010 *
b000111 +
b111000 ,
b110011 -
b1001011 .
b111101 /
b000111 0
b0000011110010 1
b11 2
03
04
15
b0110 7
18
09
b1101100101 :
1;
#341
0;
#342
b0110 #
b0000001000010 $
b010 %
b111010 &
b110100 '
b000110 (
b001100 )
b000110 *
b001100 +
b111010 ,
b110100 -
b1000010 .
b000000 /
b000110 0
b0000011010000 1
b00 2
13
05
08
b0000100001 :
1;
0=
#343
0;
#344
b0000011010000 $
b000 %
b000111 *
b001101 +
b111011 ,
b110101 -
b1010000 .
b000001 /
b000001 0
b0000000110100 1
b01 2
b0001101000 :
1;
1=
#345
0;
#346
b0000000110100 $
b100 %
b000110 *
b001100 +
b111010 ,
b110100 -
b0110100 .
b000000 /
b110100 0
b1111010001101 1
b10 2
14
19
b0000011010 :
1;
#347
0;
#348
b1111010001101 $
b101 %
b000011 *
b001001 +
b110111 ,
b110001 -
b0001101 .
b111101 /
b110111 0
b1111011100011 1
b11 2
03
04
15
b0111 7
18
09
b1101000110 :
1;
#349
0;
#350
b0111 #
b0000001000010 $
b010 %
b111001 &
b110010 '
b000111 (
b001110 )
b000111 *
b001110 +
b111001 ,
b110010 -
b1000010 .
b000000 /
b000111 0
b0000011110000 1
b00 2
13
05
08
b0000100001 :
1;
0=
#351
0;
#352
b0000011110000 $
b000 %
b001000 *
b001111 +
b111010 ,
b110011 -
b1110000 .
b000001 /
b000001 0
b0000000111100 1
b01 2
b0001111000 :
1;
1=
#353
0;
#354
b0000000111100 $
b100 %
b000111 *
b001110 +
b111001 ,
b110010 -
b0111100 .
b000000 /
b110010 0
b1111001001111 1
b10 2
14
19
b0000011110 :
1;
#355
0;
#356
b1111001001111 $
b111 %
b000011 *
b001010 +
b110101 ,
b101110 -
b1001111 .
b111100 /
b111100 0
b1111110010011 1
b11 2
03
04
15
b100010 6
b1000 7
18
09
b1100100111 :
1;
#357
0;
#358
b1000 #
b0000001000100 $
b100 %
b001000 &
b010000 '
b111000 (
b110000 )
b111000 *
b110000 +
b001000 ,
b010000 -
b1000100 .
b000000 /
b010000 0
b0001000010001 1
b00 2
13
05
08
b0000100010 :
1;
0=
#359
0;
#360
b0001000010001 $
b001 %
b111100 *
b110100 +
b001100 ,
b010100 -
b0010001 .
b000100 /
b111100 0
b1111110000100 1
b01 2
b0100001000 :
1;
1=
#361
0;
#362
b1111110000100 $
b100 %
b110111 *
b101111 +
b000111 ,
b001111 -
b0000100 .
b111111 /
b001111 0
b0000111100001 1
b10 2
14
19
b1111000010 :
1;
#363
0;
#364
b0000111100001 $
b001 %
b111011 *
b110011 +
b001011 ,
b010011 -
b1100001 .
b000011 /
b111011 0
b1111101111000 1
b11 2
03
04
15
b1001 7
18
09
b0011110000 :
1;
#365
0;
#366
b1001 #
b0000001000100 $
b100 %
b000111 &
b001110 '
b111001 (
b110010 )
b111001 *
b110010 +
b000111 ,
b001110 -
b1000100 .
b000000 /
b001110 0
b0000111010001 1
b00 2
13
05
08
b0000100010 :
1;
0=
#367
0;
#368
b0000111010001 $
b001 %
b111100 *
b110101 +
b001010 ,
b010001 -
b1010001 .
b000011 /
b111100 0
b1111110010100 1
b01 2
b0011101000 :
1;
1=
#369
0;
#370
b1111110010100 $
b100 %
b111000 *
b110001 +
b000110 ,
b001101 -
b0010100 .
b111111 /
b001101 0
b0000110100101 1
b10 2
14
19
b1111001010 :
1;
#371
0;
#372
b0000110100101 $
b101 %
b111100 *
b110101 +
b001010 ,
b010001 -
b0100101 .
b000011 /
b001010 0
b0000101001001 1
b11 2
03
04
15
b1010 7
18
09
b0011010010 :
1;
#373
0;
#374
b1010 #
b0000001000100 $
b100 %
b000110 &
b001100 '
b111010 (
b110100 )
b111010 *
b110100 +
b000110 ,
b001100 -
b1000100 .
b000000 /
b001100 0
b0000110010001 1
b00 2
13
05
08
b0000100010 :
1;
0=
#375
0;
#376
b0000110010001 $
b001 %
b111101 *
b110111 +
b001001 ,
b001111 -
b0010001 .
b000011 /
b111101 0
b1111110100100 1
b01 2
b0011001000 :
1;
1=
#377
0;
#378
b1111110100100 $
b100 %
b111001 *
b110011 +
b000101 ,
b001011 -
b0100100 .
b111111 /
b001011 0
b0000101101001 1
b10 2
14
19
b1111010010 :
1;
#379
0;
#380
b0000101101001 $
b001 %
b111100 *
b110110 +
b001000 ,
b001110 -
b1101001 .
b000010 /
b111100 0
b1111110011010 1
b11 2
03
04
15
b1011 7
18
09
b0010110100 :
1;
#381
0;
#382
b1011 #
b0000001000100 $
b100 %
b000101 &
b001010 '
b111011 (
b110110 )
b111011 *
b000101 ,
b001010 -
b1000100 .
b000000 /
b001010 0
b0000101010001 1
b00 2
13
05
08
b0000100010 :
1;
0=
#383
0;
#384
b0000101010001 $
b001 %
b111101 *
b111000 +
b000111 ,
b001100 -
b1010001 .
b000010 /
b111101 0
b1111110110100 1
b01 2
b0010101000 :
1;
1=
#385
0;
#386
b1111110110100 $
b100 %
b111010 *
b110101 +
b000100 ,
b001001 -
b0110100 .
b111111 /
b001001 0
b0000100101101 1
b10 2
14
19
b1111011010 :
1;
#387
0;
