simWorkspace/Booth2SmallArea/test.vcd
$version Generated by VerilatedVcd $end
$date 2022年07月22日 星期五 11时18分10秒 $end
$timescale 1ps $end

 $scope module TOP $end
  $var wire  1 + clk $end
  $var wire  8 ' io_dinA [7:0] $end
  $var wire  8 ( io_dinB [7:0] $end
  $var wire  1 & io_din_vld $end
  $var wire 16 * io_dout [15:0] $end
  $var wire  1 ) io_dout_vld $end
  $var wire  1 , reset $end
  $scope module Booth2SmallArea $end
   $var wire  8 / NegativeB [7:0] $end
   $var wire  8 1 addMux [7:0] $end
   $var wire  3 # cal_cnt [2:0] $end
   $var wire  1 $ cal_en $end
   $var wire  1 2 cal_en_regNext $end
   $var wire  1 + clk $end
   $var wire  2 . flag_bits [1:0] $end
   $var wire  8 ' io_dinA [7:0] $end
   $var wire  8 ( io_dinB [7:0] $end
   $var wire  1 & io_din_vld $end
   $var wire 16 * io_dout [15:0] $end
   $var wire  1 ) io_dout_vld $end
   $var wire  1 , reset $end
   $var wire 17 - shiftReg [16:0] $end
   $var wire  8 0 sumShiftB [7:0] $end
   $var wire  1 % when_Booth2SmallArea_l32 $end
  $upscope $end
 $upscope $end
$enddefinitions $end


#0
b000 #
0$
0%
0&
b10110011 '
b00100000 (
0)
b0000000000000000 *
0+
1,
b00000000000000000 -
b00 .
b11100000 /
b00100000 0
b00100000 1
02
#80
0,
#85
1+
#87
0+
#89
1+
#91
0+
#93
1+
#95
0+
#97
1+
#99
0+
#100
#101
1&
b11011110 '
b00010110 (
1+
b11101010 /
b00010110 0
b00010110 1
#103
0+
#105
1$
0&
b0000000011011110 *
1+
b00000000110111100 -
#107
0+
#109
b001 #
b0000000001101111 *
1+
b00000000011011110 -
b10 .
b11101010 0
b11101010 1
12
#111
0+
#113
b010 #
b1111010100110111 *
1+
b11110101001101111 -
b11 .
b00001011 0
b00010110 1
#115
0+
#117
b011 #
b1111101010011011 *
1+
b11111010100110111 -
b00010000 0
#119
0+
#121
b100 #
b1111110101001101 *
1+
b11111101010011011 -
b00010011 0
#123
0+
#125
b101 #
b1111111010100110 *
1+
b11111110101001101 -
b01 .
b00010100 0
#127
0+
#129
b110 #
b0000101001010011 *
1+
b00001010010100110 -
b10 .
b11110100 0
b11101010 1
#131
0+
#133
b111 #
1%
b1111101000101001 *
1+
b11111010001010011 -
b11 .
b00010000 0
b00010110 1
#135
0+
#137
b000 #
0$
0%
1)
b1111110100010100 *
1+
b11111101000101001 -
b01 .
b00010011 0
#139
0+
#141
0)
1+
02
